p8105_hw6_jn2761
…
From description of variable, we know that variablebabysex, frace,malform,mrace should be factor

birthweight_df %>%
   mutate(babysex = ifelse(babysex == 1, "male","female"),
     malform = ifelse(malform == 0, "absent","present"),
          frace = recode(frace, `1` = "White", `2`="Black", `3` = "Asian", `4` = "Puerto Rican", `8` = "Other", `9` = "Unknown"),
          mrace = recode(mrace, `1` = "White", `2`="Black", `3` = "Asian", `4` = "Puerto Rican", `8` = "Other"))

## # A tibble: 4,342 x 20
##    babysex bhead blength   bwt delwt fincome frace gaweeks malform menarche
##    <chr>   <dbl>   <dbl> <dbl> <dbl>   <dbl> <chr>   <dbl> <chr>      <dbl>
##  1 female     34      51  3629   177      35 White    39.9 absent        13
##  2 male       34      48  3062   156      65 Black    25.9 absent        14
##  3 female     36      50  3345   148      85 White    39.9 absent        12
##  4 male       34      52  3062   157      55 White    40   absent        14
##  5 female     34      52  3374   156       5 White    41.6 absent        13
##  6 male       33      52  3374   129      55 White    40.7 absent        12
##  7 female     33      46  2523   126      96 Black    40.3 absent        14
##  8 female     33      49  2778   140       5 White    37.4 absent        12
##  9 male       36      52  3515   146      85 White    40.3 absent        11
## 10 male       33      50  3459   169      75 Black    40.7 absent        12
## #  with 4,332 more rows, and 10 more variables: mheight <dbl>, momage <dbl>,
## #   mrace <chr>, parity <dbl>, pnumlbw <dbl>, pnumsga <dbl>, ppbmi <dbl>,
## #   ppwt <dbl>, smoken <dbl>, wtgain <dbl>
…
